%!PS-Adobe-3.0
%%DocumentNeededResources: font Helvetica
%%+ font Helvetica-Bold
%%+ font Helvetica-Oblique
%%+ font Helvetica-BoldOblique
%%+ font Symbol
%%DocumentMedia: special 432 432 0 () ()
%%Title: R Graphics Output
%%Creator: R Software
%%Pages: (atend)
%%BoundingBox: 0 0 432 432
%%EndComments
%%BeginProlog
/bp  { gs gs } def
% begin .ps.prolog
/gs  { gsave } def
/gr  { grestore } def
/ep  { showpage gr gr } def
/m   { moveto } def
/l  { rlineto } def
/np  { newpath } def
/cp  { closepath } def
/f   { fill } def
/o   { stroke } def
/c   { newpath 0 360 arc } def
/r   { 4 2 roll moveto 1 copy 3 -1 roll exch 0 exch rlineto 0 rlineto -1 mul 0 exch rlineto closepath } def
/p1  { stroke } def
/p2  { gsave bg fill grestore newpath } def
/p3  { gsave bg fill grestore stroke } def
/p6  { gsave bg eofill grestore newpath } def
/p7  { gsave bg eofill grestore stroke } def
/t   { 5 -2 roll moveto gsave rotate
       1 index stringwidth pop
       mul neg 0 rmoveto show grestore } def
/ta  { 4 -2 roll moveto gsave rotate show } def
/tb  { 2 -1 roll 0 rmoveto show } def
/cl  { grestore gsave newpath 3 index 3 index moveto 1 index
       4 -1 roll lineto  exch 1 index lineto lineto
       closepath clip newpath } def
/rgb { setrgbcolor } def
/s   { scalefont setfont } def
% end   .ps.prolog
%%IncludeResource: font Helvetica
/Helvetica findfont
dup length dict begin
  {1 index /FID ne {def} {pop pop} ifelse} forall
  /Encoding ISOLatin1Encoding def
  currentdict
  end
/Font1 exch definefont pop
%%IncludeResource: font Helvetica-Bold
/Helvetica-Bold findfont
dup length dict begin
  {1 index /FID ne {def} {pop pop} ifelse} forall
  /Encoding ISOLatin1Encoding def
  currentdict
  end
/Font2 exch definefont pop
%%IncludeResource: font Helvetica-Oblique
/Helvetica-Oblique findfont
dup length dict begin
  {1 index /FID ne {def} {pop pop} ifelse} forall
  /Encoding ISOLatin1Encoding def
  currentdict
  end
/Font3 exch definefont pop
%%IncludeResource: font Helvetica-BoldOblique
/Helvetica-BoldOblique findfont
dup length dict begin
  {1 index /FID ne {def} {pop pop} ifelse} forall
  /Encoding ISOLatin1Encoding def
  currentdict
  end
/Font4 exch definefont pop
%%IncludeResource: font Symbol
/Symbol findfont
dup length dict begin
  {1 index /FID ne {def} {pop pop} ifelse} forall
  currentdict
  end
/Font5 exch definefont pop
%%EndProlog
%%Page: 1 1
bp
0.00 0.00 432.00 432.00 cl
/Font2 findfont 14 s
0 setgray
230.40 397.45 (2009 Swine Flu) .5 0 t
/Font1 findfont 12 s
230.40 18.72 (Date) .5 0 t
12.96 223.20 (Density) .5 90 t
59.04 73.44 401.76 372.96 cl
0 setgray
0.75 setlinewidth
[] 0 setdash
1 setlinecap
1 setlinejoin
10.00 setmiterlimit
71.73 84.53 17.63 6.78 r p1
89.36 84.53 17.63 12.81 r p1
106.99 84.53 17.63 16.58 r p1
124.62 84.53 17.63 21.86 r p1
142.25 84.53 17.63 49.74 r p1
159.88 84.53 17.63 58.03 r p1
177.51 84.53 17.63 83.65 r p1
195.14 84.53 17.63 97.97 r p1
212.77 84.53 17.63 102.49 r p1
230.40 84.53 17.63 141.68 r p1
248.03 84.53 17.63 140.17 r p1
265.66 84.53 17.63 218.55 r p1
283.29 84.53 17.63 150.72 r p1
300.92 84.53 17.63 103.25 r p1
318.55 84.53 17.63 107.01 r p1
336.18 84.53 17.63 149.22 r p1
353.81 84.53 17.63 277.33 r p1
371.44 84.53 17.63 119.07 r p1
0.00 0.00 432.00 432.00 cl
0 setgray
0.75 setlinewidth
[] 0 setdash
1 setlinecap
1 setlinejoin
10.00 setmiterlimit
np
59.04 84.53 m
0 259.97 l
o
np
59.04 84.53 m
-7.20 0 l
o
np
59.04 149.53 m
-7.20 0 l
o
np
59.04 214.52 m
-7.20 0 l
o
np
59.04 279.51 m
-7.20 0 l
o
np
59.04 344.50 m
-7.20 0 l
o
/Font1 findfont 12 s
41.76 84.53 (0.000) .5 90 t
41.76 149.53 (0.005) .5 90 t
41.76 214.52 (0.010) .5 90 t
41.76 279.51 (0.015) .5 90 t
41.76 344.50 (0.020) .5 90 t
np
71.73 73.44 m
317.34 0 l
o
np
71.73 73.44 m
0 -7.20 l
o
np
89.36 73.44 m
0 -7.20 l
o
np
106.99 73.44 m
0 -7.20 l
o
np
124.62 73.44 m
0 -7.20 l
o
np
142.25 73.44 m
0 -7.20 l
o
np
159.88 73.44 m
0 -7.20 l
o
np
177.51 73.44 m
0 -7.20 l
o
np
195.14 73.44 m
0 -7.20 l
o
np
212.77 73.44 m
0 -7.20 l
o
np
230.40 73.44 m
0 -7.20 l
o
np
248.03 73.44 m
0 -7.20 l
o
np
265.66 73.44 m
0 -7.20 l
o
np
283.29 73.44 m
0 -7.20 l
o
np
300.92 73.44 m
0 -7.20 l
o
np
318.55 73.44 m
0 -7.20 l
o
np
336.18 73.44 m
0 -7.20 l
o
np
353.81 73.44 m
0 -7.20 l
o
np
371.44 73.44 m
0 -7.20 l
o
np
389.07 73.44 m
0 -7.20 l
o
60.40 47.52 (Ma) 0 ta
-0.360 (y) tb gr
97.32 47.52 (J) 0 ta
-0.240 (un) tb gr
132.58 47.52 (J) 0 ta
-0.240 (un) tb gr
169.84 47.52 (J) 0 ta
-0.240 (ul) tb gr
205.10 47.52 (J) 0 ta
-0.240 (ul) tb gr
237.36 47.52 (A) 0 ta
-0.360 (ug) tb gr
272.61 47.52 (A) 0 ta
-0.360 (ug) tb gr
307.87 47.52 (A) 0 ta
-0.360 (ug) tb gr
353.81 47.52 (Sep) .5 0 t
389.07 47.52 (Sep) .5 0 t
ep
%%Trailer
%%Pages: 1
%%EOF
